Introduction to UnilSports package
…
A plot with the optimization results.

This document introduces you to UnilSports basic set of tools, and
shows you how to apply them.

Transform daily data into weekly data
webscrape_sports()

This function returns a weekly sports table schedule.

Example

sport_schedule<- webscrape_sports()
head(sport_schedule,5)
#> # A tibble: 5 × 4
#>   Date       Timetable     Activity                                  Location   
#>   <date>     <chr>         <chr>                                     <chr>      
#> 1 2022-12-19 08:00 – 09:00 Football / Pratique libre                 Rugby-Foot…
#> 2 2022-12-19 08:00 – 09:00 Football / Pratique libre                 Rugby-Foot…
#> 3 2022-12-19 08:00 – 09:00 Basketball / Pratique libre à l'extérieur Basket Ent…
#> 4 2022-12-19 09:00 – 10:00 Football / Pratique libre                 Rugby-Foot…
#> # … with 1 more row

Webscrape met data webscrape_MET()

This function returns the MET values table of more than 800
activities.

met_values <- webscrape_MET()
head(met_values,5)
#> # A tibble: 5 × 3
#>   Activity  `Specific Motion`                         METs
#>   <chr>     <chr>                                    <dbl>
#> 1 bicycling bicycling, mountain, uphill, vigorous     14  
#> 2 bicycling bicycling, mountain, competitive, racing  16  
#> 3 bicycling bicycling, BMX                             8.5
#> 4 bicycling bicycling, mountain, general               8.5
#> # … with 1 more row
…
